FFA Rasch Modelling
…
4.3 Any categories not chosen?

Let’s check if any category was not chosen at all, which may cause the model to fail according to this source.

ffa13_acc %>% 
  pivot_longer(everything(), names_to = "item", values_to = "category") %>% 
  count(item, category, sort = TRUE)

# A tibble: 32 × 3
   item   category     n
   <chr>     <dbl> <int>
 1 FFA_8         2   514
 2 FFA_6         2   477
 3 FFA_11        2   469
 4 FFA_9         2   469
 5 FFA_10        2   467
 6 FFA_4         2   453
 7 FFA_14        2   436
 8 FFA_12        2   401
 9 FFA_12        1   357
10 FFA_14        1   341
# … with 22 more rows
…
